module gitlab.com/project-emco/core/emco-base/src/monitor

go 1.14

require (
	github.com/go-logr/logr v0.2.1 // indirect
	github.com/go-logr/zapr v0.2.0 // indirect
	github.com/go-openapi/spec v0.19.4
	github.com/operator-framework/operator-sdk v0.19.0
	github.com/pkg/errors v0.9.1
	github.com/spf13/pflag v1.0.5
	k8s.io/api v0.20.2
	k8s.io/apimachinery v0.20.2
	k8s.io/client-go v12.0.0+incompatible
	k8s.io/kube-openapi v0.0.0-20201113171705-d219536bb9fd
	sigs.k8s.io/controller-runtime v0.6.0
	sigs.k8s.io/controller-tools v0.3.0
)

// Pinned to kubernetes-1.13.4
replace (
	github.com/Sirupsen/logrus => github.com/sirupsen/logrus v1.7.0
	github.com/docker/distribution => github.com/docker/distribution v0.0.0-20191216044856-a8371794149d
	github.com/docker/docker => github.com/moby/moby v17.12.0-ce-rc1.0.20200618181300-9dc6525e6118+incompatible
	helm.sh/helm/v3 => helm.sh/helm/v3 v3.5.3
	k8s.io/api => k8s.io/api v0.19.4
	k8s.io/apimachinery => k8s.io/apimachinery v0.19.4
	k8s.io/client-go => k8s.io/client-go v0.19.4
	sigs.k8s.io/controller-runtime => sigs.k8s.io/controller-runtime v0.6.3
)
